{
  "type": "FeatureCollection",
  "features": [
    {
      "type": "Feature",
      "properties": {
        "FID_BATAS_": 0,
        "FIRST_KAB": "Kab. Bojonegoro",
        "FIRST_LAST": "Pemerintah daerah Kab. Bojonegoro, 2019",
        "SUM_SUM_LU": 231125.811437,
        "FID_BATAS1": 0,
        "PROVINSI": "Prov. Jawa Timur",
        "KAB": "Kab. Bojonegoro",
        "KECAMATAN": "Kecamatan Gondang",
        "DESA": "Gondang",
        "SUMBER": "Pemerintah daerah Kab. Bojonegoro, 2019",
        "LUASHA": 1715.34406059,
        "JENIS": "Perkotaan"
      },
      "geometry": {
        "type": "Polygon",
        "coordinates": [
          [
            [597542.996599999955, 9181014.251899998635054],
            [597552.603899998939596, 9180850.6014],
            [597548.077099998714402, 9180794.223899999633],
            [597536.888799998443574, 9180717.958599999547],
            [597527.936499998322688, 9180656.061799999326],
            [597503.519999998039566, 9180587.5621],
            [597464.749599999282509, 9180515.774099998176098],
            [597438.141399999498, 9180455.01799999923],
            [597407.14070000173524, 9180405.326900001615286],
            [597381.682299998821691, 9180367.786499999464],
            [597345.181099999812432, 9180326.951199999079],
            [597339.634299998171628, 9180312.589200001209974],
            [597329.602799999644049, 9180262.8564000017941],
            [597291.859700001194142, 9180152.369600001722574],
            [597277.450999998371117, 9180121.44099999964],
            [597253.11849999811966, 9180094.954500002786517],
            [597212.229399997740984, 9180067.395200001075864],
            [597176.876000000280328, 9180048.6699],
            [597138.22929999884218, 9180038.795999998226762],
            [597116.156799998367205, 9180038.839799998328],
            [597100.697199999355, 9180034.448],
            [597075.274399999761954, 9180014.597299998626113],
            [597066.423399999738, 9180003.558599999174],
            [597057.539599999552593, 9179975.9357999973],
            [597047.58509999839589, 9179964.899399999529],
            [597033.229199997964315, 9179960.5054],
            [597001.226300001493655, 9179961.674399999902],
            [596982.466799999936, 9179962.817200001329184],
            [596979.134099999442697, 9179951.767599999905],
            [596974.669199998490512, 9179926.3473],
            [596969.102899999474175, 9179902.0347],
            [596948.112199998577125, 9179891.020099997520447],
            [596921.542100002407096, 9179849.059299999848],
            [596901.637500001583248, 9179829.197599997743964],
            [596883.953299999702722, 9179815.965199999511],
            [596873.987899999599904, 9179799.400699999183],
            [596873.963799998979084, 9179787.239],
            [596869.507799999322742, 9179766.2411],
            [596868.375699999742, 9179751.8703],
            [596868.349500000593252, 9179738.603000001981854],
            [596862.807299999986, 9179726.452199999243],
            [596852.859399999724701, 9179718.732499998062849],
            [596817.530500000226311, 9179712.1687],
            [596802.066699999733828, 9179705.5656],
            [596722.560299999895506, 9179682.504799997434],
            [596678.400299999397248, 9179674.8527],
            [596597.827499999082647, 9179670.589299997314811],
            [596559.194399998872541, 9179667.348699998110533],
            [596539.335799997556023, 9179670.7047],
            [596521.695399997988716, 9179679.5844],
            [596497.43320000229869, 9179688.477199999616],
            [596412.54389999806881, 9179733.974600002169609],
            [596296.796700000297278, 9179801.644899999723],
            [596210.805600000894628, 9179848.2498],
            [596134.723100001690909, 9179882.673299999908],
            [596071.842799998703413, 9179896.064099999145],
            [596004.526199999731034, 9179898.407300001010299],
            [595935.015499999863096, 9179907.388499999419],
            [595865.489499999676, 9179908.630200002342463],
            [595807.036499998881482, 9179928.6457],
            [595621.772900000330992, 9180003.0839],
            [595536.832799997995608, 9180023.150699997320771],
            [595397.832399999257177, 9180052.16750000230968],
            [595331.649500000174157, 9180069.986199999228],
            [595331.853900000452995, 9180175.018899997696],
            [595319.836599999689497, 9180238.0622],
            [595296.79809999873396, 9180308.866199998185039],
            [595274.869599998695776, 9180382.984799999744],
            [595249.630099999485537, 9180457.109800001606345],
            [595211.125499999616295, 9180520.204500002786517],
            [595148.39870000211522, 9180613.197700001299381],
            [595084.555199999595061, 9180699.559299999848],
            [595021.797999998903833, 9180777.073699999601],
            [594945.811800001538359, 9180862.353],
            [594855.488800001563504, 9180953.18779999949],
            [594796.011800001957454, 9181015.217],
            [594714.502399998600595, 9181098.295299999416],
            [594658.319000001531094, 9181151.473000001162291],
            [594594.416299999924, 9181207.9824],
            [594532.680299999308772, 9181243.480999998748302],
            [594459.897000000230037, 9181273.472599999979],
            [594385.999399999972, 9181297.9383],
            [594288.910299998242408, 9181314.7091],
            [594206.155799999483861, 9181324.818600002676249],
            [594134.459, 9181345.962799999863],
            [594051.710799999069422, 9181359.388799998909235],
            [593988.836699999519624, 9181377.1991],
            [593914.966299999505281, 9181416.0368],
            [593842.1825, 9181446.027499999851],
            [593756.211899998947047, 9181505.8946],
            [593692.280400001211092, 9181548.029799999669],
            [593652.612199999042787, 9181581.2738],
            [593595.352999999420717, 9181649.9306],
            [593484.164099997957237, 9181797.1882],
            [593440.078799998853356, 9181829.334699999541],
            [593403.689700000104494, 9181845.988099999726],
            [593347.426200001500547, 9181858.256799999624],
            [593338.617999998154119, 9181869.329599998891354],
            [593334.228600002010353, 9181882.6052],
            [593337.571099999477156, 9181899.1829],
            [593343.141999999526888, 9181926.8125],
            [593353.146399998804554, 9181964.384099999443],
            [593408.430399998906069, 9182017.348],
            [593431.65989999868907, 9182044.943899998441339],
            [593428.445699999574572, 9182095.807899998500943],
            [593419.721499998588115, 9182151.1048],
            [593404.446900001261383, 9182244.004799999297],
            [593396.836900000460446, 9182304.827600002288818],
            [593381.541099999915, 9182386.67149999924],
            [593376.045799999032, 9182398.843600001186132],
            [593336.485999998287298, 9182489.5785],
            [593321.148000000277534, 9182549.310299998149276],
            [593305.845599998952821, 9182627.8374],
            [593278.409000002313405, 9182709.704199997708201],
            [593252.082399997860193, 9182794.885799998417497],
            [593226.871799997985363, 9182886.698899999261],
            [593198.404600001638755, 9183007.263799998909235],
            [593182.058900001691654, 9183117.855299999937],
            [593173.436899998574518, 9183227.3265],
            [593157.097300001070835, 9183341.234799999744],
            [593141.779599999543279, 9183412.0225],
            [593114.279400002560578, 9183460.7212],
            [593069.189099999261089, 9183545.938100002706051],
            [592988.861800001352094, 9183674.340099999681],
            [592920.660099998000078, 9183794.9798],
            [592869.32660000026226, 9184081.42799999937],
            [592860.538600001251325, 9184103.5567],
            [592856.163399998913519, 9184124.571399999782],
            [592861.721599997836165, 9184145.567399997264147],
            [592868.395999998901971, 9184173.1949],
            [592873.9688, 9184201.930100001394749],
            [592890.568199999165, 9184225.116399999708],
            [592929.273199999704957, 9184264.8451],
            [592939.246299998252653, 9184285.8328],
            [592952.549200001754798, 9184316.764599999413],
            [592981.318799999076873, 9184355.4064],
            [593010.059199998504482, 9184378.569800002500415],
            [593037.708499999716878, 9184408.368799999356],
            [593054.310199999483302, 9184432.660800002515316],
            [593088.586000001057982, 9184464.6585],
            [593118.434399999445304, 9184490.03099999949],
            [593126.183400002191775, 9184502.17790000140667],
            [593131.718699998920783, 9184511.012299997732043],
            [593137.279099999577738, 9184533.113899998366833],
            [593145.078299999120645, 9184571.795299997553229],
            [593172.692199998884462, 9184582.7991],
            [593188.165199999348, 9184593.825899999589],
            [593194.820999998599291, 9184611.502900002524257],
            [593189.319099999032915, 9184620.3582],
            [593165.0979, 9184652.46650000102818],
            [593121.013899998274, 9184686.823600001633167],
            [593116.617800000240095, 9184696.7824],
            [593114.431299998890609, 9184707.842499999329],
            [593129.921000002417713, 9184727.714100001379848],
            [593182.979199998895638, 9184769.6267],
            [593192.920999998692423, 9184774.0303],
            [593243.761400001938455, 9184810.419100001454353],
            [593290.109399998560548, 9184805.908899998292327],
            [593316.611299999873154, 9184812.492400001734495],
            [593339.816799999913, 9184826.821299999952],
            [593353.094999999157153, 9184844.485799998044968],
            [593352.014299999340437, 9184856.649500001221895],
            [593342.120599999791011, 9184877.674700001254678],
            [593354.286700001801364, 9184890.9189000017941],
            [593387.467699999571778, 9184927.341],
            [593388.602799999876879, 9184943.9229],
            [593394.217799998586997, 9184994.770100001245737],
            [593401.979599999147467, 9185013.550599997863173],
            [593409.705699999816716, 9185013.536],
            [593421.84249999851454, 9185011.30179999955],
            [593451.666299997945316, 9185023.406899999827],
            [593501.390699998592027, 9185053.163899999112],
            [593531.218699999503, 9185067.4801],
            [593567.681699998443946, 9185088.4174],
            [593605.250599999795668, 9185110.458200002089143],
            [593657.165900000953116, 9185131.366],
            [593679.246799997868948, 9185134.6409],
            [593742.174299999140203, 9185142.2605],
            [593764.282600000500679, 9185159.908099999651],
            [593767.6233, 9185175.3802],
            [593774.281399999861605, 9185194.162799999118],
            [593788.651000000303611, 9185205.1916],
            [593797.480899998336099, 9185205.174799999222],
            [593838.285400001564994, 9185187.4074],
            [593843.785099999397062, 9185177.446500001475215],
            [593845.942099997773767, 9185150.9078],
            [593846.976299999747425, 9185114.4209],
            [593854.687699999427423, 9185106.66699999943],
            [593870.129399999161251, 9185101.1095],
            [593893.311999999219552, 9185103.276600001379848],
            [593923.123300001607276, 9185108.7478],
            [593940.806199999526143, 9185120.8757],
            [593978.415399999590591, 9185163.9227],
            [594001.650699998950586, 9185193.729699999094],
            [594019.358999999240041, 9185219.1249],
            [594045.928800001274794, 9185261.0873],
            [594123.234699998982251, 9185284.1574],
            [594164.096199999563396, 9185296.241099998354912],
            [594178.518700001295656, 9185334.909699998795986],
            [594176.467499998630956, 9185416.72849999927],
            [594185.375599999213591, 9185457.619000002741814],
            [594194.245599998394027, 9185478.6085],
            [594214.140399997937493, 9185492.943399999291],
            [594231.817199999932, 9185501.754499997944],
            [594258.306999999214895, 9185501.7038],
            [594273.727699997834861, 9185485.090299999341],
            [594293.5655, 9185469.573799999431],
            [594323.355899999966, 9185463.9888],
            [594353.156900000409223, 9185463.9318],
            [594394.073700001579709, 9185504.7609],
            [594411.767500000540167, 9185522.416799999774],
            [594441.598199999309145, 9185537.838200001046062],
            [594494.632899998803623, 9185566.482300002127886],
            [594538.83570000063628, 9185594.037799999118],
            [594608.498899998376146, 9185660.240600001066923],
            [594671.418799999868497, 9185663.436699999496],
            [594689.110599999199621, 9185679.986899999902],
            [594716.755299999262206, 9185706.468399997800589],
            [594760.954099999158643, 9185731.8124],
            [594825.037399998866022, 9185765.963099999353],
            [594851.514600000344217, 9185759.278599999845],
            [594872.483699998469092, 9185758.1326],
            [594958.53789999790024, 9185738.066099999472],
            [594976.208500000648201, 9185743.5601],
            [594987.267299999599345, 9185754.594899998978],
            [594995.036099998280406, 9185776.692099999636],
            [595020.558699998655356, 9185847.4019],
            [595031.604699999792501, 9185851.80299999937],
            [595038.216599998064339, 9185846.262299999595],
            [595041.50439999869559, 9185834.0942],
            [595038.150599998305552, 9185811.9885],
            [595031.601999999722466, 9185781.9318],
            [595031.571699999971, 9185781.79250000230968],
            [595048.097100000246428, 9185818.603],
            [595053.641400001593865, 9185831.8596],
            [595049.273299998370931, 9185856.191399998962879],
            [595049.239599998341873, 9185856.218899998813868],
            [595040.499799998477101, 9185863.36],
            [595031.640999999013729, 9185870.5983],
            [595028.791100000147708, 9185872.509299997240305],
            [595018.412999998778105, 9185879.468700001016259],
            [595026.166900001117028, 9185893.8266],
            [595029.366100000683218, 9185902.3223],
            [595032.823499999474734, 9185911.503499999642],
            [595022.923799998359755, 9185929.21229999885],
            [595022.633400000515394, 9185929.323799999431],
            [594999.761999999638647, 9185938.1018],
            [594992.626599999261089, 9185944.764400001615286],
            [594984.337100001750514, 9185952.504399998113513],
            [594971.07100000011269, 9185953.85899999924],
            [594929.1601000004448, 9185958.138699999079],
            [594908.133999998215586, 9185957.624899998307228],
            [594887.215300000854768, 9185957.1138],
            [594870.990899998811074, 9185947.868499999866],
            [594864.010899998364039, 9185943.8911],
            [594845.210999999311753, 9185925.131899999455],
            [594825.33489999815356, 9185920.7477],
            [594809.824399999925, 9185928.5533],
            [594807.691899999510497, 9185929.626400001347065],
            [594799.346599998767488, 9185945.489899998530746],
            [594797.916699999244884, 9185948.207899998873472],
            [594797.794200000469573, 9185948.440799999982],
            [594782.367099998518825, 9185961.7377],
            [594765.846899998607114, 9185980.564799997955561],
            [594737.225799999549054, 9186020.42159999907],
            [594698.571000000229105, 9186008.3342],
            [594681.507000001729466, 9186000.895099999383],
            [594680.896100001526065, 9186000.628799997270107],
            [594656.592299998621456, 9185989.619400002062321],
            [594646.039100000169128, 9185985.192299999297],
            [594635.603999999235384, 9185980.814799999818],
            [594616.833699999726377, 9185975.481899999082],
            [594612.412399998982437, 9185974.2256],
            [594599.177999999839813, 9185979.7791],
            [594599.123099998803809, 9185979.857799999416],
            [594595.993199998396449, 9185984.354899998754263],
            [594591.472900000284426, 9185990.849899999797],
            [594591.756899999221787, 9185991.133299998939037],
            [594602.531600002665073, 9186001.884799998253584],
            [594608.057099997997284, 9186003.103599999],
            [594622.407699999283068, 9186006.269099997356534],
            [594634.580100001418032, 9186010.6765],
            [594646.707299998495728, 9186015.06730000115931],
            [594656.666499999468215, 9186028.315500002354383],
            [594656.514300000155345, 9186028.652699999511],
            [594651.345399999874644, 9186040.1018],
            [594651.171099999686703, 9186040.487699998542666],
            [594639.885699998703785, 9186044.8189],
            [594628.009200002183206, 9186049.377],
            [594627.906600002548657, 9186049.7499],
            [594622.538499998045154, 9186069.2521],
            [594622.52850000129547, 9186069.288499997928739],
            [594656.688599998131394, 9186089.936600001528859],
            [594695.461299999617, 9186113.372899999842],
            [594696.773400000180118, 9186114.420200001448393],
            [594706.515899999183603, 9186122.196499999613],
            [594721.991799999494106, 9186134.3285],
            [594732.013099999283, 9186139.587100001052022],
            [594742.984399999142624, 9186145.3443],
            [594763.341299999738112, 9186155.8979],
            [594770.605999999446794, 9186159.6641],
            [594793.799799999338575, 9186167.35879999958],
            [594808.055200000875629, 9186168.691099997609854],
            [594816.982899999944, 9186169.525499999523],
            [594838.101999997976236, 9186171.6729],
            [594848.9983, 9186172.780799999833],
            [594865.0417, 9186169.687899997457862],
            [594872.168700001668185, 9186168.313799997791648],
            [594883.075600002077408, 9186163.509099999443],
            [594889.813999998616055, 9186160.540599999949],
            [594905.249599997885525, 9186151.666099997237325],
            [594905.395600000396371, 9186151.568200001493096],
            [594907.2273, 9186150.34],
            [594918.477699999231845, 9186142.795799998566508],
            [595006.395199999679, 9186128.311599999666],
            [595006.750699999509379, 9186128.252999998629093],
            [595014.913299999199808, 9186131.5052],
            [595034.365999999805354, 9186139.255899999291],
            [595042.394099999801256, 9186144.3132],
            [595055.362899999716319, 9186152.482799999416],
            [595076.359899998526089, 9186165.709599997848272],
            [595089.617799999075942, 9186172.317700002342463],
            [595099.566499998327345, 9186180.037799999118],
            [595102.923199998447672, 9186186.173899998888373],
            [595106.212499998393469, 9186192.186699999496],
            [595114.688799999887124, 9186197.258799999952],
            [595117.241199999465607, 9186198.786099998280406],
            [595117.262899998691864, 9186198.7991],
            [595124.020599999465048, 9186198.785999998450279],
            [595140.44189999869559, 9186198.754400001838803],
            [595149.161899998085573, 9186195.559200001880527],
            [595164.707600000197999, 9186189.862699998542666],
            [595187.875799997826107, 9186184.289999997243285],
            [595215.435699998866767, 9186166.5471],
            [595226.447199998656288, 9186160.637099998072],
            [595231.97500000114087, 9186157.670299999416],
            [595247.406299997936003, 9186146.5844],
            [595263.945600000210106, 9186137.707599999383],
            [595293.732200002647005, 9186129.910899998620152],
            [595313.593499999493361, 9186126.5557],
            [595340.268399999244139, 9186098.0559],
            [595348.841100001242012, 9186088.896900001913309],
            [595349.927799998200499, 9186080.0499],
            [595348.054999998537824, 9186071.3779],
            [595346.586599998059683, 9186064.577800001949072],
            [595346.771499998751096, 9186064.3174],
            [595357.568199999863282, 9186049.1148],
            [595357.594199999351986, 9186049.07799999975],
            [595371.930299999425188, 9186042.4166],
            [595384.069499999634, 9186041.287599999458],
            [595386.692300000344403, 9186042.6957],
            [595398.433299998287112, 9186048.999099999666],
            [595406.178799999761395, 9186058.934599999338],
            [595411.167999999714084, 9186063.082800002768636],
            [595419.445300000952557, 9186069.96499999985],
            [595438.224100000225008, 9186077.668],
            [595455.888499999418855, 9186079.845],
            [595478.9072, 9186078.026500001549721],
            [595484.581999999354593, 9186077.578299997374415],
            [595485.361899998388253, 9186077.342299997806549],
            [595506.644299998879433, 9186070.9019],
            [595516.436399999773, 9186068.4296],
            [595537.534599999780767, 9186063.1028],
            [595548.705999999539927, 9186057.480699999258],
            [595557.382899999152869, 9186053.1139],
            [595587.156599998357706, 9186038.683299999684],
            [595593.1903, 9186033.020400002598763],
            [595603.682900000945665, 9186023.1728],
            [595618.008199998643249, 9186010.983300002291799],
            [595633.411500002839603, 9185985.524399999529],
            [595655.463100000866689, 9185973.319899998605251],
            [595667.585099999909, 9185963.34599999897],
            [595667.688099998980761, 9185963.203299999237],
            [595668.632699998910539, 9185961.897099999711],
            [595676.391599999624304, 9185951.167199999094],
            [595678.429699999280274, 9185946.721100002527237],
            [595682.9862, 9185936.7814],
            [595687.381899998523295, 9185926.822399999946],
            [595706.446999999461696, 9185929.7685],
            [595722.712799997883849, 9185932.281899999827],
            [595734.869199999375269, 9185939.997600002214313],
            [595750.353900000103749, 9185956.55169999972],
            [595753.690999999642372, 9185969.81259999983],
            [595763.986099999747239, 9185978.800499999896],
            [595771.381099999882281, 9185985.256799999624],
            [595793.151300000259653, 9185997.661699999124],
            [595794.585800000932068, 9185998.4791],
            [595802.489000000525266, 9185998.170499999076],
            [595824.38509999786038, 9185997.3156],
            [595845.24079999839887, 9185988.471700001507998],
            [595845.339299999759533, 9185988.43],
            [595846.585699999123, 9185987.5346],
            [595868.485999997938052, 9185971.800899999216],
            [595890.3417, 9185970.0741],
            [595897.179299998097122, 9185969.5339],
            [595903.1012, 9185970.1937],
            [595955.691400001407601, 9185976.053799999878],
            [595972.267100001685321, 9185985.971999997273088],
            [595988.855699998443015, 9186002.5239],
            [595990.1715, 9186010.337799998000264],
            [595991.088999998406507, 9186015.786900002509356],
            [596001.046500000287779, 9186027.929199997335672],
            [596001.6111000002129, 9186028.338900001719594],
            [596013.205099999206141, 9186036.750499999151],
            [596039.716800001915544, 9186047.755],
            [596053.841099999728613, 9186060.48379999958],
            [596073.993599997949786, 9186078.6454],
            [596100.49890000175219, 9186086.333],
            [596105.716699999175034, 9186086.148600002750754],
            [596121.943299998529255, 9186085.5752],
            [596133.609600001713261, 9186085.162899998947978],
            [596155.693399998475797, 9186089.5423],
            [596164.545, 9186100.581199999899],
            [596164.456499999971, 9186100.7704],
            [596161.038899999461137, 9186108.082099998369813],
            [596155.751599998795427, 9186119.393699999899],
            [596148.059699998702854, 9186137.0985],
            [596140.511199997621588, 9186150.390499997884035],
            [596139.259799999883398, 9186152.594199998304248],
            [596122.757199998479337, 9186180.266599999741],
            [596110.652400000835769, 9186199.085599999875],
            [596112.902999998652376, 9186221.193499999121],
            [596112.943900001118891, 9186242.199999997392297],
            [596118.488599999807775, 9186255.456499997526407],
            [596130.642899998347275, 9186262.0665],
            [596146.076199999311939, 9186252.086],
            [596146.167700000223704, 9186251.820499999449],
            [596147.343799999565817, 9186248.412399999797],
            [596154.856799998320639, 9186226.639799999073],
            [596162.509899999015033, 9186189.034099999815],
            [596165.693599998485297, 9186182.624799998477101],
            [596175.703300001332536, 9186162.473699999973],
            [596191.1193, 9186143.648299999535],
            [596196.603700001956895, 9186125.947800001129508],
            [596191.05039999820292, 9186108.268799999729],
            [596177.768599999020807, 9186089.499299997463822],
            [596171.915900001768023, 9186077.831299999729],
            [596163.363699998124503, 9186060.7815],
            [596171.042600000742823, 9186036.4431],
            [596185.346199999214, 9186013.197399999946],
            [596205.1751, 9185993.257699998095632],
            [596213.743199998629279, 9185962.600100001320243],
            [596217.232299999916, 9185950.115299999714],
            [596220.011999999755062, 9185944.1182],
            [596232.620199998375028, 9185916.917000001296401],
            [596244.030799998319708, 9185905.442600002512336],
            [596249.144199998234399, 9185900.300500001758337],
            [596263.469299998367205, 9185888.110899997875094],
            [596272.592000000178814, 9185882.3146],
            [596284.41479999863077, 9185874.8026],
            [596296.524500000290573, 9185867.1322],
            [596314.17949999764096, 9185855.9491],
            [596335.135699999402277, 9185848.168899999931],
            [596345.611799999373034, 9185842.195499999449],
            [596368.211700000450946, 9185829.3089],
            [596390.239300001063384, 9185804.942399997264147],
            [596412.43250000255648, 9185793.288600001484156],
            [596415.599699998740107, 9185791.625499997287989],
            [596415.735699999961, 9185791.592499997466803],
            [596443.180599998682737, 9185784.937899999321],
            [596453.220599999069236, 9185788.783399999142],
            [596457.540199997951277, 9185790.437899997457862],
            [596471.483199999551289, 9185803.422199999914],
            [596473.888699999079108, 9185805.662299998104572],
            [596474.126799999387003, 9185805.88399999961],
            [596480.840400001732633, 9185818.241300001740456],
            [596488.527499998686835, 9185832.390599999577],
            [596497.381299997563474, 9185844.535],
            [596497.81959999888204, 9185844.363199999556],
            [596510.993499999400228, 9185839.2017],
            [596517.233799998532049, 9185836.756799999624],
            [596517.246799998334609, 9185836.74599999934],
            [596530.457199999946, 9185825.674799999222],
            [596554.726899998844601, 9185818.993699999526],
            [596573.473399998387322, 9185810.112100001424551],
            [596592.222099999780767, 9185802.3361],
            [596605.506099998601712, 9185822.211100002750754],
            [596608.843299999134615, 9185835.471899999306],
            [596611.327600000542589, 9185838.569899998605251],
            [596613.269200000911951, 9185840.991299999878],
            [596635.194299998460338, 9185836.554200001060963],
            [596635.335699999821372, 9185836.525599997490644],
            [596637.030899997800589, 9185836.622099999338],
            [596654.101699999067932, 9185837.594499999657],
            [596665.150099999504164, 9185843.100899998098612],
            [596665.159599997918122, 9185847.950099997222424],
            [596665.171699999948, 9185854.15699999966],
            [596670.954199998173863, 9185859.445599999279],
            [596678.44060000043828, 9185866.292700001969934],
            [596692.689699999638833, 9185877.227399999276],
            [596692.811099998652935, 9185877.320699999109],
            [596692.830799998017028, 9185877.340300001204014],
            [596707.80659999884665, 9185892.2818],
            [596708.294099998078309, 9185892.768899999559],
            [596709.050099998479709, 9185893.6488],
            [596721.569499998469837, 9185908.221499998122454],
            [596728.266900000511669, 9185915.738899998366833],
            [596730.419099998078309, 9185918.1546],
            [596734.209299998707138, 9185919.8714],
            [596742.571299997973256, 9185923.6589],
            [596748.18099999987, 9185921.091499997303],
            [596754.394299998413771, 9185918.2477],
            [596754.701800001086667, 9185918.107000002637506],
            [596755.749699998646975, 9185910.115000002086163],
            [596756.876799999736249, 9185901.5185],
            [596754.689999999827705, 9185896.7245],
            [596751.334099998697639, 9185889.367699999362],
            [596739.158099998836406, 9185871.7017],
            [596738.363999999244697, 9185861.62],
            [596738.026199999032542, 9185857.331000002101064],
            [596738.154399998602457, 9185857.210100002586842],
            [596747.317399999243207, 9185848.571499999613],
            [596755.653699999792, 9185840.7122],
            [596761.556599998264574, 9185840.372199997306],
            [596775.519199998234399, 9185839.5676],
            [596800.922899997676723, 9185848.362699998542666],
            [596828.527699998579919, 9185853.8366],
            [596845.064499998348765, 9185843.853599999],
            [596848.921099998173304, 9185838.4228],
            [596850.568099999218248, 9185836.10349999927],
            [596850.931299999589, 9185835.966199999675],
            [596855.635200000950135, 9185834.188799997791648],
            [596868.21520000055898, 9185829.4352],
            [596898.003599998541176, 9185822.743],
            [596917.847299999091774, 9185810.542199999094],
            [596929.958199999295175, 9185795.039900001138449],
            [596929.965199999744073, 9185795.038699997588992],
            [596938.546199999283999, 9185793.588800001889467],
            [596943.19889999856241, 9185792.8026],
            [596964.1681, 9185791.655799999833],
            [596974.083099999115802, 9185791.636299997568],
            [596978.516899999114685, 9185791.627599999309],
            [596995.049399998621084, 9185779.433299999684],
            [596993.921699998085387, 9185767.2738],
            [596982.851499999756925, 9185750.711300002411008],
            [596968.500499998917803, 9185749.633899999782],
            [596968.147699999157339, 9185749.782900001853704],
            [596947.546599999885075, 9185758.5199999977],
            [596938.977699997834861, 9185763.085699999705],
            [596928.802299997652881, 9185768.5074],
            [596895.700499998987652, 9185774.1005],
            [596884.233799999579787, 9185775.080399999395],
            [596869.214699999196455, 9185776.3638],
            [596862.150299999164417, 9185772.8429],
            [596855.956599998869933, 9185769.756100002676249],
            [596850.588799999561161, 9185761.725099999458],
            [596847.100499999476597, 9185756.5061],
            [596851.506300000124611, 9185741.391499999911],
            [596852.582399998907931, 9185737.7],
            [596856.641100000706501, 9185732.801700001582503],
            [596863.593899998697452, 9185724.411],
            [596879.039899998693727, 9185721.063799999654],
            [596891.903099998249672, 9185722.553999997675419],
            [596897.808099999674596, 9185723.238100001588464],
            [596902.687600000877865, 9185711.771299997344613],
            [596904.400199999799952, 9185707.7466],
            [596903.385299999965, 9185689.1279],
            [596903.255199999315664, 9185686.7422],
            [596898.324600001447834, 9185680.928599998354912],
            [596891.085699999239296, 9185672.393099999055],
            [596873.421299997717142, 9185670.216600002720952],
            [596855.482200000435114, 9185670.917400002479553],
            [596843.62210000178311, 9185671.38069999963],
            [596836.71209999837447, 9185673.37299999967],
            [596828.178299999097362, 9185675.833499999717],
            [596818.266199999721721, 9185686.909099999815],
            [596810.331299999728799, 9185699.245799999684],
            [596806.16179999942, 9185705.72829999961],
            [596796.2541000014171, 9185719.0151],
            [596787.407799998880364, 9185730.136099997907877],
            [596783.041599998949096, 9185735.62519999966],
            [596765.394500002032146, 9185742.2935],
            [596725.648500001057982, 9185736.843399997800589],
            [596710.180799999739975, 9185729.1345],
            [596708.964499998139217, 9185728.492499999702],
            [596691.397499998216517, 9185719.220799999312],
            [596654.954099999974, 9185709.3417],
            [596646.336999998660758, 9185698.166099999],
            [596643.888399999472313, 9185694.990399997681379],
            [596648.257900000899099, 9185671.764],
            [596658.096299999976, 9185623.097699999809],
            [596673.187900002114475, 9185613.17129999958],
            [596686.756999999750406, 9185604.246099999174],
            [596701.077599999727681, 9185589.8451],
            [596705.098999999114312, 9185580.5885],
            [596708.769199999049306, 9185572.1402],
            [596716.610599998384714, 9185561.385199999437],
            [596720.855799998855218, 9185555.562600001692772],
            [596720.877899999730289, 9185555.532199999318],
            [596722.328399998601526, 9185554.6201],
            [596738.516199998557568, 9185544.4415],
            [596751.730799999554, 9185528.937],
            [596760.539099999354221, 9185517.8636],
            [596778.16439999837894, 9185500.1392],
            [596791.400699998484924, 9185495.6907],
            [596801.3366, 9185496.7769],
            [596801.346300000441261, 9185496.751599999145],
            [596806.827100000111386, 9185482.3931],
            [596810.092799999867566, 9185459.168800001963973],
            [596818.872799999662675, 9185433.722499998286366],
            [596833.1977, 9185421.532600002363324],
            [596833.270399999455549, 9185421.49799999967],
            [596851.944000002113171, 9185412.6508],
            [596859.960199997760355, 9185408.981899999082],
            [596864.07429999881424, 9185407.098899999633],
            [596886.125399998622015, 9185394.893899999559],
            [596903.799700000323355, 9185379.094499999657],
            [596905.627099999575876, 9185377.460900001227856],
            [596905.958099999232218, 9185377.1651],
            [596907.909799999557436, 9185376.019499998539686],
            [596919.187799998442642, 9185369.399800002574921],
            [596929.082399997976609, 9185349.479299999774],
            [596922.435599998920225, 9185343.510699998587],
            [596918.025399999110959, 9185339.550499998033047],
            [596905.888499999418855, 9185341.78559999913],
            [596896.122799999779, 9185348.5864],
            [596891.559399999678135, 9185351.7642],
            [596886.318499998189509, 9185355.388699999079],
            [596873.923300000489689, 9185363.960699999705],
            [596858.750899998703972, 9185359.993],
            [596852.941299999016337, 9185358.473799999803],
            [596845.36, 9185358.277799999341],
            [596813.204299998353235, 9185357.446299998089671],
            [596804.899500000523403, 9185356.423000002279878],
            [596795.540000002249144, 9185355.2697],
            [596790.326599999563769, 9185354.075400002300739],
            [596781.184799999813549, 9185351.9811],
            [596770.496100000687875, 9185352.59699999914],
            [596761.3196, 9185353.1257],
            [596752.999800000339746, 9185358.276699999347],
            [596746.988199999672361, 9185361.9987],
            [596744.513299997895956, 9185366.624399999157],
            [596739.290199999231845, 9185376.3868000023067],
            [596743.739899998763576, 9185394.0679],
            [596743.434399998164736, 9185400.437899997457862],
            [596742.679599998518825, 9185416.18219999969],
            [596736.1793, 9185429.268799999729],
            [596733.884300000616349, 9185433.889299999923],
            [596720.507499999250285, 9185445.324],
            [596711.846199998399243, 9185452.727899998426437],
            [596705.253999999491498, 9185451.640699999407],
            [596698.596899998490699, 9185450.5427],
            [596684.228700000676326, 9185440.620399998500943],
            [596671.674200000124983, 9185423.623299999163],
            [596668.734999999869615, 9185419.644099999219],
            [596660.987099999096245, 9185408.603099999949],
            [596645.532499998458661, 9185407.527799999341],
            [596636.184199999901, 9185413.573500001803041],
            [596630.099599999142811, 9185417.5086],
            [596626.830100001767278, 9185432.939300002530217],
            [596626.81829999841284, 9185432.993499999866],
            [596627.161200000206009, 9185438.31599999964],
            [596627.957099999766797, 9185450.681199999526],
            [596627.965199999977, 9185454.804199997335672],
            [596627.989599999156781, 9185467.265299998223782],
            [596615.880899998475797, 9185483.873199999332],
            [596617.53000000026077, 9185496.880500001832843],
            [596618.123000001069158, 9185501.5587],
            [596615.071099999128, 9185509.7598],
            [596611.535199999110773, 9185519.261399999261],
            [596598.169799999333918, 9185533.735799999908],
            [596597.216799998539, 9185534.767999997362494],
            [596592.622700001345947, 9185539.387799998745322],
            [596581.794599998509511, 9185550.276799999177],
            [596568.575599998468533, 9185563.57],
            [596561.839199999463744, 9185570.9603],
            [596556.622499999590218, 9185576.683199999854],
            [596556.460299999103881, 9185576.861099997535348],
            [596537.718199998605996, 9185587.9539],
            [596536.280900001409464, 9185589.005299998447299],
            [596525.594299998600036, 9185596.822599999607],
            [596519.89400000043679, 9185599.431499999017],
            [596513.463899998809211, 9185602.374399999157],
            [596484.757700002170168, 9185598.008100001141429],
            [596477.005499998806044, 9185584.755899997428],
            [596474.756899998523295, 9185563.753700001165271],
            [596469.209999998100102, 9185549.391600001603365],
            [596460.818300000391901, 9185541.779899999499],
            [596457.047199999914, 9185538.359199998900294],
            [596440.503899998031557, 9185545.025300001725554],
            [596440.280399997718632, 9185545.446799999103],
            [596431.706299999612384, 9185561.6267],
            [596416.282000001054257, 9185576.029800001531839],
            [596384.281899998895824, 9185580.514799999073],
            [596361.240299998433329, 9185580.5598],
            [596345.650600000983104, 9185580.590299999341],
            [596322.454599999357015, 9185571.790699999779],
            [596318.146799999522045, 9185548.319],
            [596317.992099999916, 9185547.475900001823902],
            [596317.987599997664802, 9185547.390499999747],
            [596317.83119999896735, 9185544.373900001868606],
            [596316.845199998351745, 9185525.365899998694658],
            [596306.866099998354912, 9185502.1676],
            [596289.162899999646, 9185480.089900001883507],
            [596279.203299999120645, 9185466.842],
            [596270.340999998385087, 9185450.2752],
            [596270.324700001510791, 9185441.946599997580051],
            [596270.30439999839291, 9185431.5578],
            [596270.304299999610521, 9185431.4798],
            [596271.111799998441711, 9185430.5776],
            [596280.216399998986162, 9185420.4043],
            [596295.1491, 9185414.0719],
            [596301.170300000114366, 9185411.5185],
            [596307.869699999690056, 9185410.639299999923],
            [596335.377700000535697, 9185407.029200002551079],
            [596345.203299999586307, 9185408.746299998834729],
            [596354.147899999166839, 9185410.309399999678],
            [596371.600099998759106, 9185413.071500001475215],
            [596381.750199999660254, 9185414.677899999544],
            [596400.518199998652562, 9185416.852400001138449],
            [596415.955499999225, 9185409.083],
            [596419.238599997828715, 9185394.7036],
            [596420.627500000642613, 9185380.510299999267],
            [596421.402899999637157, 9185372.587099999189],
            [596417.003699999768287, 9185343.597099998965859],
            [596414.693899998324923, 9185328.3757],
            [596414.19899999932, 9185328.0054],
            [596401.429499997990206, 9185318.451100001111627],
            [596378.240100001683459, 9185312.968400001525879],
            [596355.046399998362176, 9185305.274499999359],
            [596354.900099999736995, 9185305.117399999872],
            [596351.978099998552352, 9185301.9776],
            [596340.667399998288602, 9185289.82399999909],
            [596337.600799999665469, 9185283.100899998098612],
            [596335.125000000116415, 9185277.673099998384714],
            [596330.623599997954443, 9185233.457399997860193],
            [596334.407299998681992, 9185231.114900002256036],
            [596344.954899999545887, 9185224.584499999881],
            [596359.922999999718741, 9185225.304899998009205],
            [596367.031899997848086, 9185225.64699999988],
            [596404.537499999511056, 9185214.5175],
            [596410.851499999058433, 9185212.043700002133846],
            [596424.389699999708682, 9185206.73939999938],
            [596430.507999998400919, 9185202.124199999496],
            [596437.61509999865666, 9185196.763000002130866],
            [596440.893900001421571, 9185180.172399999574],
            [596436.465099999798, 9185160.392],
            [596436.440000002505258, 9185160.28009999916],
            [596439.720899999374524, 9185144.795100001618266],
            [596439.872299999697134, 9185144.7188],
            [596445.471399998757988, 9185141.9008],
            [596455.158100001164712, 9185137.025599999353],
            [596460.668200001819059, 9185132.592299999669],
            [596487.114599998458289, 9185110.4283],
            [596492.246200000750832, 9185110.418299999088],
            [596513.604399997857399, 9185110.376499999315],
            [596523.563999998383224, 9185123.624299999326],
            [596534.885599999804981, 9185132.866099998354912],
            [596535.200799998594448, 9185133.123400002717972],
            [596535.724700000253506, 9185133.551],
            [596548.960899999365211, 9185129.102600002661347],
            [596548.924099999713, 9185110.30729999952],
            [596552.198400000110269, 9185091.5054],
            [596554.698099998291582, 9185089.571600001305342],
            [596566.525399998994544, 9185080.42119999975],
            [596580.87829999870155, 9185082.604299999774],
            [596590.354099998716265, 9185083.85099999979],
            [596597.438699998660013, 9185084.783099997788668],
            [596613.940299999085255, 9185078.8814],
            [596631.630799998762086, 9185072.5543],
            [596649.273299999069422, 9185063.674799999222],
            [596664.712599999504164, 9185057.0109],
            [596681.262199999299, 9185053.661599999294],
            [596691.182799998205155, 9185047.0084],
            [596692.801399998250417, 9185045.613199999556],
            [596706.609099998837337, 9185033.710799999535],
            [596708.460899999598041, 9185028.1094],
            [596709.900799998082221, 9185023.753799999133],
            [596708.421099999221042, 9185018.8482],
            [596706.567900002351962, 9185012.704199999571],
            [596689.990099999122322, 9185001.6806],
            [596678.984299997915514, 9185003.5402],
            [596663.509100000141189, 9185006.154999997466803],
            [596654.927499998942949, 9185007.891699999571],
            [596641.442999998573214, 9185010.620699999854],
            [596628.126099998597056, 9185009.242999998852611],
            [596620.467699998989701, 9185008.450699999928],
            [596611.827999998466112, 9185005.354199998081],
            [596592.854799997992814, 9184998.5543],
            [596579.614200001931749, 9185000.791499998420477],
            [596569.198699999367818, 9184999.584700001403689],
            [596560.846400000387803, 9184998.617],
            [596549.800299998256378, 9184994.216199997813],
            [596543.744199999491684, 9184986.5263],
            [596537.628899999429, 9184978.761499997228384],
            [596537.881099999300204, 9184977.571299999952],
            [596540.909799998509698, 9184963.276499999687],
            [596552.6278, 9184956.398599999025],
            [596554.139499997720122, 9184955.511199999601],
            [596574.000199999776669, 9184952.1555],
            [596578.49309999786783, 9184945.052499998360872],
            [596581.702499998384155, 9184939.9786],
            [596580.740199998952448, 9184925.9349],
            [596580.56629999820143, 9184923.3967],
            [596572.820599999162368, 9184913.4613],
            [596560.359699998050928, 9184909.8167],
            [596554.228199999895878, 9184908.023299999535],
            [596554.0463, 9184907.970099998638034],
            [596551.016799999633804, 9184908.4819],
            [596534.185600000200793, 9184911.325800001621246],
            [596516.778500000131316, 9184910.815099999309],
            [596498.863899998599663, 9184910.2894],
            [596481.188999999896623, 9184902.584699999541],
            [596472.443299999460578, 9184902.6018],
            [596467.944199997815304, 9184902.6107],
            [596440.780699999071658, 9184905.929799998179078],
            [596440.357299998519011, 9184905.981499999762],
            [596436.725999999092892, 9184909.2682],
            [596429.339399999939, 9184915.9536],
            [596424.815399998566136, 9184921.8037],
            [596421.632800001068972, 9184925.919199999422],
            [596421.832399998209439, 9184926.277400001883507],
            [596422.5416, 9184927.5503],
            [596427.170899998862296, 9184935.858900001272559],
            [596432.7199, 9184951.3266],
            [596426.12339999852702, 9184964.606799999252],
            [596419.352, 9184968.694599999115],
            [596415.099, 9184971.262099999934],
            [596391.914100001566112, 9184967.990599999204],
            [596381.954499998944812, 9184954.742699999362],
            [596366.493599998182617, 9184950.3505],
            [596356.647000000230037, 9184948.461499998345971],
            [596332.264799999422394, 9184943.78380000218749],
            [596321.207999998005107, 9184933.8549],
            [596313.309799998882227, 9184928.400399997830391],
            [596306.839999997871928, 9184923.932500001043081],
            [596293.577899997937493, 9184915.1135],
            [596281.904600000940263, 9184907.35099999979],
            [596280.651700001675636, 9184906.517799999565],
            [596280.315800000331365, 9184906.2945],
            [596268.352399999508634, 9184884.4261],
            [596260.568099998519756, 9184870.1969],
            [596260.377300001797266, 9184869.848300002515316],
            [596267.843999997945502, 9184856.968699999154],
            [596268.077499999548309, 9184856.56589999795],
            [596276.900899999774992, 9184853.231799999252],
            [596287.561699998448603, 9184851.875799998641014],
            [596294.556299998890609, 9184850.986099997535348],
            [596312.203099999576807, 9184844.3179],
            [596324.326799999806099, 9184835.4493],
            [596344.168099998845719, 9184822.1431],
            [596348.320500001078472, 9184818.48930000141263],
            [596352.982800001977012, 9184814.3866],
            [596357.216499999747612, 9184806.473600002005696],
            [596360.6808, 9184799.9986],
            [596368.131199999479577, 9184801.47599999979],
            [596371.722499998752028, 9184802.188200002536178],
            [596375.861600000527687, 9184799.2144],
            [596379.437799999258, 9184796.645099999383],
            [596374.731499998481013, 9184786.327299999073],
            [596373.8953, 9184784.4942],
            [596359.495699998340569, 9184783.080200001597404],
            [596351.816399998497218, 9184782.326100001111627],
            [596331.949200001079589, 9184782.365],
            [596322.022099997731857, 9184785.701199997216463],
            [596308.781699999236, 9184787.9383],
            [596308.505299999844283, 9184787.780899999663],
            [596308.043600000441074, 9184787.517900001257658],
            [596293.312099999049678, 9184779.123700002208352],
            [596291.072200000402518, 9184762.543899999931],
            [596295.45689999894239, 9184747.056699998676777],
            [596293.217000000295229, 9184730.4769],
            [596282.155999999609776, 9184718.336800001561642],
            [596277.84559999848716, 9184706.1794],
            [596275.4968, 9184699.5544],
            [596276.101699998602271, 9184695.87509999983],
            [596277.678400001837872, 9184686.2828],
            [596287.555699999094941, 9184657.517599999905],
            [596287.965599999297, 9184657.134899999946],
            [596291.884699999820441, 9184653.475199999288],
            [596302.9798, 9184643.11449999921],
            [596311.156399998348206, 9184640.6881],
            [596321.7324, 9184637.549699999392],
            [596326.050100000225939, 9184638.678800001740456],
            [596342.71409999858588, 9184643.036800002679229],
            [596350.56899999815505, 9184650.874300001189113],
            [596354.878899998846464, 9184655.174700001254678],
            [596373.543899998650886, 9184663.4407],
            [596374.763299999875017, 9184663.980699999258],
            [596385.822199999704026, 9184675.015199998393655],
            [596410.13399999961, 9184671.55719999969],
            [596440.993499998003244, 9184667.167899999768],
            [596445.263699999195524, 9184664.7125],
            [596456.428399999276735, 9184658.292799999937],
            [596475.172300002072006, 9184648.305599998682737],
            [596483.006400002515875, 9184650.1578],
            [596498.361499998602085, 9184653.788200002163649],
            [596509.40739999874495, 9184658.189000001177192],
            [596519.584299998241477, 9184658.806099997833371],
            [596527.069199998979457, 9184659.259999997913837],
            [596544.750599999795668, 9184670.2815],
            [596566.83169999870006, 9184673.555],
            [596580.938499998766929, 9184674.469399997964501],
            [596583.389799998141825, 9184674.628200002014637],
            [596595.347400001483038, 9184673.7785],
            [596615.393599999020807, 9184672.354199999943],
            [596624.810099998954684, 9184670.7631],
            [596635.2542, 9184668.9984],
            [596639.896200002287515, 9184668.21399999969],
            [596655.114899999928, 9184665.642599999905],
            [596708.069999998435378, 9184653.376899998635054],
            [596717.980999998049811, 9184650.045999998226762],
            [596717.997099999571219, 9184650.040599998086691],
            [596725.699300001491793, 9184637.8637],
            [596733.410199998528697, 9184630.109200002625585],
            [596748.855900002177805, 9184626.762099998072],
            [596753.937299998826347, 9184627.2148],
            [596773.142299999599345, 9184628.925599999726],
            [596776.477399999392219, 9184641.0808],
            [596778.463899999624118, 9184645.534399997442961],
            [596780.911799998604693, 9184651.0226],
            [596783.100399998598732, 9184655.38570000231266],
            [596788.66839999880176, 9184666.485899999738],
            [596787.349899999331683, 9184677.223899999633],
            [596786.495699998456985, 9184684.179999997839332],
            [596788.735700000310317, 9184700.7598],
            [596795.362399998353794, 9184702.958],
            [596810.792899998254143, 9184691.871599998325109],
            [596816.564599998528138, 9184681.2222],
            [596817.14379999844823, 9184680.153699997813],
            [596817.391399999498, 9184679.6969],
            [596821.762899998575449, 9184657.5760000012815],
            [596823.939899999299087, 9184642.0931],
            [596832.737200001371093, 9184625.491599999368],
            [596850.361999999848194, 9184607.7671],
            [596855.650999999605119, 9184602.44820000231266],
            [596864.682199998176657, 9184593.365999998524785],
            [596876.81019999878481, 9184586.708499999717],
            [596878.941799999214709, 9184578.818399999291],
            [596880.097499998868443, 9184574.540200002491474],
            [596875.176499998196959, 9184565.219],
            [596869.136499998741783, 9184553.778399998322129],
            [596869.018899999558926, 9184553.5554],
            [596855.596699997782707, 9184543.1403],
            [596849.530899998615496, 9184538.433599999174],
            [596849.121300001279451, 9184538.1159],
            [596836.986899999668822, 9184541.456599999219],
            [596813.838999998522922, 9184556.980699997395277],
            [596790.665099999984, 9184559.237499998882413],
            [596776.315899999113753, 9184552.4635],
            [596769.674699999857694, 9184549.328199999407],
            [596769.627599998260848, 9184549.2277],
            [596761.915999998920597, 9184532.759299999103],
            [596748.620599998394027, 9184526.132899999619],
            [596744.239000001573004, 9184523.949099998921156],
            [596725.428699999582022, 9184523.98599999957],
            [596710.023500001057982, 9184524.016300002112985],
            [596686.064899998251349, 9184523.174499997869134],
            [596680.220700000645593, 9184522.9692],
            [596669.1552000020165, 9184508.6179],
            [596657.727899999124929, 9184496.179599998518825],
            [596656.988199997809716, 9184495.374399999157],
            [596656.5269, 9184495.406199999154],
            [596640.434499999741092, 9184496.512499999255],
            [596617.447499999427237, 9184505.3361],
            [596617.273599998792633, 9184505.402899999171],
            [596615.897199999773875, 9184511.3144],
            [596612.895500001031905, 9184524.206899998709559],
            [596597.4781, 9184541.92699999921],
            [596589.954099998692982, 9184543.6554],
            [596573.211299998336472, 9184547.501599999145],
            [596573.206900001503527, 9184547.502599999309],
            [596553.33329999842681, 9184544.224799999967],
            [596536.744899999233894, 9184527.6731],
            [596536.758899999898858, 9184527.5588],
            [596538.917699998361059, 9184509.979],
            [596548.733699998003431, 9184499.210100002586842],
            [596551.032700001378544, 9184496.687899999321],
            [596554.78789999790024, 9184495.522399999201],
            [596565.372399999294, 9184492.237299997359514],
            [596569.761299999430776, 9184478.9614],
            [596568.449299999861978, 9184471.170399999246],
            [596566.411099999211729, 9184459.066899999976],
            [596558.656900000409223, 9184444.7091],
            [596534.318600000580773, 9184416.0109],
            [596526.022399998968467, 9184411.185],
            [596521.05869999807328, 9184408.297599999234],
            [596504.500699999625795, 9184407.2245],
            [596503.5943, 9184406.4331],
            [596495.655699998838827, 9184399.502499999478],
            [596480.192799998330884, 9184394.004699997603893],
            [596470.796599999186583, 9184392.916099999],
            [596461.425199998775497, 9184391.830299999565],
            [596450.396599998697639, 9184396.274299997836351],
            [596450.383500000229105, 9184396.285099998116493],
            [596432.765200001536869, 9184410.6818],
            [596417.338999999687076, 9184423.979399999604],
            [596411.837900001322851, 9184428.660699998959899],
            [596403.01439999777358, 9184436.169199999422],
            [596387.992099999100901, 9184448.040300002321601],
            [596387.586099999607541, 9184448.361099999398],
            [596383.480099998763762, 9184454.32699999958],
            [596377.6807, 9184462.753500001505017],
            [596369.916699999827, 9184468.480199998244643],
            [596361.148599999957, 9184474.947599997743964],
            [596345.705099998041987, 9184479.400199998170137],
            [596332.296499999705702, 9184476.328200001269579],
            [596331.425099999643862, 9184476.128599999472],
            [596331.350199998589233, 9184476.111499998719],
            [596328.706599998753518, 9184469.856499999762],
            [596322.479300001636147, 9184455.122199997306],
            [596322.466100002056919, 9184448.3563],
            [596322.433900001225993, 9184431.9044],
            [596334.155499998363666, 9184420.1168],
            [596342.261999998590909, 9184411.964600002393126],
            [596356.573599998489954, 9184393.1412],
            [596374.198599998955615, 9184375.416899999604],
            [596391.162599999108352, 9184367.824599998072],
            [596394.048299998859875, 9184366.533099999651],
            [596395.8541, 9184365.753700001165271],
            [596409.487399999517947, 9184359.869199998676777],
            [596429.347899999585934, 9184356.513499999419],
            [596436.508999998564832, 9184355.0643],
            [596445.897199998609722, 9184353.1642],
            [596454.714000000269152, 9184346.513299999759],
            [596462.882399999536574, 9184328.0054],
            [596467.900199998053722, 9184316.6359],
            [596467.890799998305738, 9184311.855799999088],
            [596467.876400000299327, 9184304.474199999124],
            [596468.309100001701154, 9184260.872700002044439],
            [596468.797799999476, 9184211.6291],
            [596468.798100000247359, 9184211.600899998098612],
            [596487.535300001152791, 9184198.2968],
            [596508.868699999642558, 9184192.9099],
            [596514.011599998106249, 9184191.611199997365475],
            [596514.035600002272986, 9184191.550500001758337],
            [596516.166500000166707, 9184186.1838],
            [596520.601399999927, 9184175.0141],
            [596520.409899998339824, 9184171.501199999824],
            [596519.456500000320375, 9184154.0097],
            [596516.106300000101328, 9184134.115299997851253],
            [596516.298599998350255, 9184133.760399999097],
            [596522.70470000023488, 9184121.9406],
            [596530.393400002038106, 9184118.961],
            [596537.042199998628348, 9184116.3844],
            [596545.489599998574704, 9184110.012],
            [596545.858899999409914, 9184109.7334],
            [596545.860599998384714, 9184109.7267],
            [596546.175699998508207, 9184108.4535],
            [596549.144099998753518, 9184096.459600001573563],
            [596539.175899999915, 9184078.7893],
            [596538.178199999034405, 9184078.258799999952],
            [596522.602799998712726, 9184069.9769],
            [596504.499599999864586, 9184065.242700001224875],
            [596501.621400000993162, 9184064.49],
            [596486.78489999845624, 9184056.705099999905],
            [596480.629099999787286, 9184053.47499999963],
            [596480.567799999961, 9184053.389499999583],
            [596469.561599999316968, 9184038.0182],
            [596462.9112, 9184023.658199999481],
            [596457.258199998759665, 9183955.1213],
            [596459.571099999709986, 9183935.4889],
            [596460.515199999092147, 9183927.474599998444319],
            [596473.478500000201166, 9183920.949999997392297],
            [596475.951999999233522, 9183919.705],
            [596485.878899998264387, 9183916.368699999526],
            [596487.181400001631118, 9183915.2225],
            [596494.693399999407, 9183908.612099997699261],
            [596492.873599999817088, 9183900.484000001102686],
            [596492.466499998350628, 9183898.66599999927],
            [596479.193799998029135, 9183884.319],
            [596466.162699999287724, 9183872.400300001725554],
            [596465.92540000018198, 9183872.183299999684],
            [596465.923199998447672, 9183872.173499999568],
            [596461.471499999170192, 9183852.29099999927],
            [596462.507300001452677, 9183832.9297],
            [596462.536199998459779, 9183832.3879],
            [596462.547799999942, 9183832.3626],
            [596469.130299998330884, 9183818.002],
            [596475.722199998679571, 9183802.510499998927116],
            [596474.579499998711981, 9183782.6117],
            [596470.13000000116881, 9183764.9306],
            [596465.043399999733083, 9183757.32],
            [596463.488199998275377, 9183754.9931],
            [596452.433800000580959, 9183746.1698],
            [596450.37409999826923, 9183745.91599999927],
            [596443.602000001585111, 9183745.081499999389],
            [596432.577899999450892, 9183751.736800001934171],
            [596427.221399998525158, 9183756.787],
            [596414.951000002329238, 9183768.355599999428],
            [596408.736099998932332, 9183779.0764],
            [596407.251099998597056, 9183781.638],
            [596400.665599999367259, 9183800.446299999952],
            [596395.173099999548867, 9183813.7245],
            [596384.170599999837577, 9183831.435799999163],
            [596377.580900001339614, 9183848.0329],
            [596374.792800000635907, 9183861.429099999368],
            [596373.20719999819994, 9183869.0481],
            [596373.219799998449162, 9183875.5293],
            [596373.239599998807535, 9183885.632299998775125],
            [596372.177000000257976, 9183902.0865],
            [596372.168400001828559, 9183902.218599999323],
            [596358.954200000385754, 9183917.723000001162291],
            [596346.819799998775125, 9183921.063599998131394],
            [596345.702300001401454, 9183920.755],
            [596326.942200000630692, 9183915.5745],
            [596326.885299999848939, 9183915.536699999124],
            [596320.244199999258853, 9183876.8911],
            [596332.769999998155981, 9183509.803099999204],
            [596395.429699998465367, 9183381.429200001060963],
            [596478.935599998803809, 9183189.9943],
            [596470.075699999462813, 9183174.533099999651],
            [596465.587099999538623, 9183136.951099997386336],
            [596467.683899997849949, 9183080.560699999332],
            [596470.923300001770258, 9183044.069000001996756],
            [596474.193199998582713, 9183023.05599999987],
            [596481.901699998532422, 9183014.195899998769164],
            [596498.452699998742901, 9183011.952199999243],
            [596515.012499999487773, 9183014.130899999291],
            [596531.576499999500811, 9183018.520899999887],
            [596544.818699998082593, 9183017.3892],
            [596555.846899998607114, 9183012.9451],
            [596565.762799997814, 9183004.080700002610683],
            [596580.0825, 9182989.6796],
            [596599.899000002536923, 9182964.2116],
            [596610.901100000482984, 9182946.500100001692772],
            [596616.387000001734123, 9182929.90509999916],
            [596620.767000000458211, 9182912.2067],
            [596617.427699999068864, 9182897.840299999341],
            [596609.651799999061041, 9182872.426399998366833],
            [596598.547599999816157, 9182838.1742],
            [596591.881999999051914, 9182816.07499999925],
            [596587.423799999873154, 9182793.971499999985],
            [596589.600699999718927, 9182778.488599998876452],
            [596591.777700002654456, 9182763.005799999461],
            [596599.486099999281578, 9182754.1457],
            [596619.330699999816716, 9182743.050499999896],
            [596644.695899998303503, 9182733.0501],
            [596667.847299998626113, 9182719.737199999392],
            [596675.559999997727573, 9182713.088399998844],
            [596692.082700002472848, 9182696.471599999815],
            [596704.188400000100955, 9182678.75799999945],
            [596714.097600001958199, 9182666.5767],
            [596724.019899997743778, 9182661.0291],
            [596729.529600001173094, 9182656.595799999312],
            [596743.877500000293367, 9182656.567599998787045],
            [596767.059300001361407, 9182658.7331],
            [596795.761599999386817, 9182661.9934],
            [596835.507300001685508, 9182668.548799999058],
            [596868.626600002404302, 9182672.905999997630715],
            [596885.179700001259334, 9182671.767699997872114],
            [596900.616099999519065, 9182663.99799999967],
            [596906.117099999100901, 9182655.1422],
            [596908.298299999209121, 9182641.8706],
            [596908.2328, 9182608.702199999243],
            [596911.460999999777414, 9182566.682500001043081],
            [596916.905299998354167, 9182529.0808],
            [596923.466299999621697, 9182498.1107],
            [596930.003299998934381, 9182454.978800002485514],
            [596933.275099999038503, 9182435.071300001814961],
            [596942.065200001001358, 9182415.152800001204014],
            [596961.848499999381602, 9182373.1004],
            [596977.214899998507462, 9182329.951099999249],
            [596988.199299998930655, 9182303.394600002095103],
            [596990.367299999576062, 9182283.48929999955],
            [596989.224399999831803, 9182263.590399999171],
            [596981.463699999032542, 9182245.91589999944],
            [596964.845199999748729, 9182213.8859],
            [596952.645899998140521, 9182184.058399999514],
            [596938.237, 9182153.129600001499057],
            [596921.620799998985603, 9182122.205199999735],
            [596898.402200000360608, 9182101.2443],
            [596866.365099998889491, 9182085.828899998217821],
            [596838.762399998842739, 9182080.355299999937],
            [596808.956699998583645, 9182077.097200002521276],
            [596783.583200000110082, 9182082.6753],
            [596759.339399999822, 9182101.5185],
            [596743.916300001903437, 9182115.9219],
            [596725.164800001773983, 9182121.486899999902],
            [596707.508199999690987, 9182122.627299997955561],
            [596685.443399999756366, 9182127.0932],
            [596660.074199999566, 9182134.882500002160668],
            [596635.826000000117347, 9182151.514399997889996],
            [596619.310100000468083, 9182171.448],
            [596609.400999999605119, 9182183.629300002008677],
            [596600.599799999035895, 9182198.0196],
            [596585.176700001116842, 9182212.4229],
            [596565.338800000259653, 9182226.834899997338653],
            [596551.001899998867884, 9182232.391100002452731],
            [596541.068799998378381, 9182232.4107],
            [596530.029899998567998, 9182231.326799999923],
            [596517.876399999135174, 9182224.717],
            [596499.076999998302199, 9182205.958499999717],
            [596484.69890000030864, 9182190.508100001141429],
            [596468.124199998914264, 9182180.590199999511],
            [596449.339999999618158, 9182169.5709],
            [596440.491100000217557, 9182159.637800002470613],
            [596432.7372, 9182145.28],
            [596434.922799999244, 9182134.219599999487],
            [596444.823299999348819, 9182117.6159],
            [596456.931099997833371, 9182101.007899999619],
            [596455.807899999665096, 9182091.059599999338],
            [596444.747300000628456, 9182078.9196],
            [596412.695199999609031, 9182055.764699999243],
            [596385.059999997960404, 9182033.706599999219],
            [596369.58910000056494, 9182023.786499999464],
            [596350.826699999161065, 9182023.8233],
            [596336.492100000497885, 9182030.485099999234],
            [596328.785899998969398, 9182040.450799999759],
            [596325.509599998826161, 9182058.147000001743436],
            [596333.278700000490062, 9182080.244],
            [596347.676300002494827, 9182105.644899999723],
            [596357.657099999370985, 9182129.948799997568],
            [596357.674400001647882, 9182138.793700002133846],
            [596349.970399999641813, 9182149.865],
            [596336.743699998944066, 9182158.735799998044968],
            [596326.817099998355843, 9182162.072099998593],
            [596303.63140000088606, 9182157.695199999958],
            [596240.698199998820201, 9182145.6568],
            [596183.285599999129772, 9182134.713199999183],
            [596140.220699998782948, 9182123.741399999708],
            [596120.341699997894466, 9182117.1466],
            [596111.492799998493865, 9182107.213399998844],
            [596094.887999999220483, 9182081.8168],
            [596076.036899997969158, 9182036.523600002750754],
            [596071.574600000400096, 9182012.208800001069903],
            [596070.423399998573586, 9181987.887599999085],
            [596072.596099999034777, 9181970.193499999121],
            [596079.200799999293, 9181961.335699999705],
            [596105.656299999332987, 9181944.699699997901917],
            [596118.874399999389425, 9181931.4065],
            [596126.565400001592934, 9181913.7016],
            [596129.828699999838136, 9181889.371700001880527],
            [596126.413799999398179, 9181836.309],
            [596125.271200000308454, 9181816.410199997947],
            [596126.348899999400601, 9181803.140699999407],
            [596137.361699998728, 9181790.957399999723],
            [596147.283799999277107, 9181785.4099],
            [596163.840899999952, 9181786.483100002631545],
            [596181.51469999877736, 9181794.187699997797608],
            [596211.354800001718104, 9181815.135900001972914],
            [596233.467199999256991, 9181834.993599999696],
            [596251.147499997983687, 9181846.0151],
            [596267.700299998279661, 9181844.877],
            [596275.412899998715147, 9181838.228199999779],
            [596281.998099999502301, 9181819.4198],
            [596280.859699999797158, 9181801.7322],
            [596267.568000000435859, 9181777.4348],
            [596252.051699998090044, 9181744.296800002455711],
            [596240.962999998941086, 9181717.783799998462],
            [596236.483300000312738, 9181684.624199999496],
            [596227.597700000158511, 9181655.895699998363853],
            [596216.487299999571405, 9181618.326599998399615],
            [596206.50670000014361, 9181594.0227],
            [596203.152400001534261, 9181571.91699999943],
            [596209.726599997840822, 9181547.580600002780557],
            [596223.991799998679198, 9181505.5393],
            [596242.680199998896569, 9181467.911799998953938],
            [596272.433399999747053, 9181444.6355],
            [596313.231799998204224, 9181425.760000001639128],
            [596348.524899999029003, 9181413.52899999917],
            [596384.9304, 9181405.718099998310208],
            [596405.886799999279901, 9181399.043299999088],
            [596419.102399999042973, 9181384.644300002604723],
            [596419.048099999548867, 9181357.004099998623133],
            [596411.255099999136291, 9181322.745400002226233],
            [596388.006699999095872, 9181286.3058],
            [596380.241999998688698, 9181266.42],
            [596380.211600000155158, 9181250.9414],
            [596384.600199999520555, 9181237.665399998426437],
            [596415.4698, 9181221.0206],
            [596444.129999999306165, 9181203.274399999529],
            [596469.448699997738004, 9181170.056199997663498],
            [596482.642499999608845, 9181144.601100001484156],
            [596494.702199999825098, 9181103.669599998742342],
            [596497.958699999726377, 9181076.0228],
            [596497.87599999923, 9181034.0096],
            [596496.678799999878, 9180986.470599999651],
            [596497.743300001719035, 9180966.567399999127],
            [596499.92229999776464, 9180952.190099999309],
            [596515.3472, 9180938.8924],
            [596529.668499998282641, 9180925.596800001338124],
            [596538.473699998459779, 9180913.417700001969934],
            [596545.056399998953566, 9180893.503699997439981],
            [596557.157300002407283, 9180873.5788],
            [596556.01009999786038, 9180851.4688],
            [596554.830299999681301, 9180812.774600001052022],
            [596544.823400000110269, 9180775.2034],
            [596531.516599997878075, 9180743.166699999943],
            [596523.754099999321625, 9180724.386599998921156],
            [596502.758799999603, 9180711.160499997437],
            [596488.3875, 9180699.0271],
            [596478.433000001241453, 9180687.990499999374],
            [596479.519199999981, 9180679.143500002101064],
            [596489.443300000275485, 9180674.7015],
            [596509.300099999294616, 9180670.2399],
            [596534.685999998124316, 9180671.2955],
            [596549.041999999550171, 9180675.689699999988],
            [596561.197299999184906, 9180683.40509999916],
            [596659.386399998445995, 9180665.5217],
            [596715.650199999916, 9180654.354499999434],
            [596748.768100000103004, 9180658.7116],
            [596807.407399999792688, 9180732.672100001946092],
            [596899.291599998483434, 9180875.115000002086163],
            [596977.829699999536388, 9180965.62020000256598],
            [597041.895999999833293, 9180993.133799999952],
            [597444.771699999808334, 9181014.4472],
            [597542.996599999955, 9181014.251899998635054]
          ]
        ]
      }
    },
    {
      "type": "Feature",
      "properties": {
        "FID_BATAS_": 0,
        "FIRST_KAB": "Kab. Bojonegoro",
        "FIRST_LAST": "Pemerintah daerah Kab. Bojonegoro, 2019",
        "SUM_SUM_LU": 231125.811437,
        "FID_BATAS1": 1,
        "PROVINSI": "Prov. Jawa Timur",
        "KAB": "Kab. Bojonegoro",
        "KECAMATAN": "Kecamatan Sekar",
        "DESA": "Klino",
        "SUMBER": "Pemerintah daerah Kab. Bojonegoro, 2019",
        "LUASHA": 1370.59203546,
        "JENIS": "Perkotaan"
      },
      "geometry": {
        "type": "Polygon",
        "coordinates": [
          [
            [586949.166016998817213, 9174813.958304066210985],
            [586825.552029271610081, 9174779.708199607208371],
            [586825.361722311121412, 9174779.667300093919039],
            [586711.854025193955749, 9174755.289927050471306],
            [586483.546394470031373, 9174669.183284763246775],
            [586404.34862596145831, 9174635.795593820512295],
            [586320.113542942563072, 9174608.530518718063831],
            [586203.030338753946126, 9174575.052101287990808],
            [586091.015737128444016, 9174549.94501705467701],
            [585952.044736095005646, 9174517.400293879210949],
            [585853.507507826085202, 9174495.380688900128007],
            [585797.053799433866516, 9174469.383704511448741],
            [585722.063809303683229, 9174434.035993685945868],
            [585559.459017600864172, 9174365.153709385544062],
            [585476.8867054724833, 9174326.867820583283901],
            [585373.275840760208666, 9174292.994804879650474],
            [585286.529607142554596, 9174275.326906364411116],
            [585173.708210735581815, 9174270.202112490311265],
            [585081.087725172634237, 9174260.713800009340048],
            [585012.892413490917534, 9174259.253086362034082],
            [584937.149424648843706, 9174274.88510899990797],
            [584836.179019647766836, 9174305.900309914723039],
            [584665.365305094164796, 9174357.495611034333706],
            [584656.955808294937015, 9174362.410318467766047],
            [584645.180733940796927, 9174368.231825660914183],
            [584627.528711633058265, 9174385.39562108181417],
            [584609.052197942975909, 9174410.25982010923326],
            [584588.891329001984559, 9174436.231104329228401],
            [584572.076818797853775, 9174450.177387069910765],
            [584534.224038177053444, 9174468.905391145497561],
            [584507.293804937507957, 9174473.221402008086443],
            [584463.500814736355096, 9174463.756591618061066],
            [584450.862029247335158, 9174459.351518234238029],
            [584447.525011095567606, 9174476.752304157242179],
            [584445.872301483293995, 9174494.521826943382621],
            [584442.549329826259054, 9174520.044011373072863],
            [584396.253012866829522, 9174524.131584849208593],
            [584383.628896020818502, 9174526.578116966411471],
            [584355.871403503930196, 9174540.174486296251416],
            [584340.728306520264596, 9174547.108524134382606],
            [584315.509312169393525, 9174569.030291702598333],
            [584301.207522280979902, 9174574.904188504442573],
            [584265.833440311951563, 9174566.004692209884524],
            [584245.625297739054076, 9174563.246094448491931],
            [584227.957227098522708, 9174571.288519281893969],
            [584195.215032270760275, 9174624.591492511332035],
            [584188.525097504025325, 9174648.801594177260995],
            [584172.573609397164546, 9174675.872028160840273],
            [584057.261004437808879, 9174690.148824552074075],
            [583936.980497080599889, 9174752.456707755103707],
            [583845.320621579186991, 9174815.984704911708832],
            [583758.713411837816238, 9174877.603093372657895],
            [583647.869842451415025, 9175042.59039062820375],
            [583636.924710637889802, 9175042.504916442558169],
            [583620.108006059890613, 9175055.448393054306507],
            [583590.717095472151414, 9175098.466311294585466],
            [583579.795136836939491, 9175111.926318051293492],
            [583558.767240320099518, 9175124.406583802774549],
            [583543.620721651008353, 9175128.017411708831787],
            [583516.671311707235873, 9175122.947010153904557],
            [583498.143103790935129, 9175119.712011573836207],
            [583482.156507351668552, 9175123.532806856557727],
            [583461.971233687363565, 9175137.3294060472399],
            [583452.783505368162878, 9175144.206096703186631],
            [583453.903400001232512, 9175155.235100001096725],
            [583474.979599999147467, 9175219.3229],
            [583494.927599998307414, 9175269.04],
            [583514.815000000176951, 9175283.378499999642],
            [583541.319499998353422, 9175295.4945],
            [583552.375299998675473, 9175307.6369],
            [583563.455700000165962, 9175334.1519],
            [583563.525899999309331, 9175375.058499997481704],
            [583562.460299999919, 9175397.172],
            [583565.844800001825206, 9175440.284],
            [583572.509399999282323, 9175465.70099999942],
            [583594.634200001717545, 9175497.72499999963],
            [583632.196599998744205, 9175523.088899999857],
            [583674.191899997997098, 9175559.501099998131394],
            [583687.448999999440275, 9175568.323],
            [583722.918499999097548, 9175660.025599999353],
            [583753.9266000011703, 9175724.096200002357364],
            [583794.881500001531094, 9175796.9944],
            [583844.683499998878688, 9175880.933199997991323],
            [583912.160799999022856, 9175975.897399999201],
            [584033.8015, 9176123.8362],
            [584114.521599997882731, 9176218.777399998158216],
            [584190.801199998357333, 9176298.247899999842],
            [584226.159300002385862, 9176324.720800001174212],
            [584282.499599998584017, 9176360.002199999988],
            [584357.56900000013411, 9176377.561799999326],
            [584438.167600000277162, 9176401.7452],
            [584503.317000002018176, 9176425.955200001597404],
            [584559.678699998999946, 9176473.397700002416968],
            [584614.9619, 9176535.214600002393126],
            [584655.91480000060983, 9176605.9011],
            [584702.414299998548813, 9176693.161699999124],
            [584725.722699998994358, 9176770.512299997732043],
            [584744.643899998278357, 9176863.348799997941],
            [584758.066700001596473, 9176967.2506],
            [584765.956599998520687, 9177062.317399999127],
            [584760.652099998900667, 9177185.046699998900294],
            [584757.575799999875017, 9177319.933599999174],
            [584750.085199998226017, 9177454.828199999407],
            [584732.653099999763072, 9177584.212099999189],
            [584711.86040000023786, 9177684.856499999762],
            [584687.695499998400919, 9177750.128],
            [584654.788499998394, 9177865.166099997237325],
            [584574.510899998946115, 9178027.826299998909235],
            [584582.258799999719486, 9178041.0799],
            [584584.500299998675473, 9178060.9765],
            [584583.427400000393391, 9178078.667799999937],
            [584570.234499998623505, 9178107.435900002717972],
            [584542.697399998782203, 9178137.3343],
            [584533.897699999623001, 9178153.933299999684],
            [584532.818999999552034, 9178168.3078],
            [584540.58980000030715, 9178194.828399999067],
            [584564.904300000169314, 9178215.7925],
            [584603.578500000410713, 9178244.470800001174212],
            [584617.959199999575503, 9178264.3464],
            [584616.882399998256005, 9178279.826499998569489],
            [584608.06929999764543, 9178288.6864],
            [584591.531199998338707, 9178297.5598],
            [584576.085299999336712, 9178299.7977],
            [584522.01289999880828, 9178300.996799999848],
            [584507.687699997681193, 9178313.183],
            [584480.182899999548681, 9178361.876299997791648],
            [584476.902799999574199, 9178379.571399999782],
            [584483.564300001948141, 9178402.777200002223253],
            [584367.915799998445436, 9178533.436],
            [584321.712999998475425, 9178618.645699998363853],
            [584266.731099998694845, 9178732.6158],
            [584216.206999998539686, 9178872.0065],
            [584171.154799998970702, 9178984.8537],
            [584149.305899999802932, 9179114.24469999969],
            [584135.117299999226816, 9179206.0326],
            [584133.046999998623505, 9179285.63820000179112],
            [584124.416000002063811, 9179400.633799999952],
            [584119.074900000239722, 9179503.4623],
            [584124.925299999188, 9179696.929500002413988],
            [584183.457299999427, 9179721.151699997484684],
            [584229.842199999024, 9179740.972500002011657],
            [584269.59229999827221, 9179753.0655],
            [584332.498799998429604, 9179754.06279999949],
            [584393.192299999296665, 9179751.74699999951],
            [584484.782599998870865, 9179747.166699999943],
            [584590.742500001098961, 9179755.8284],
            [584701.124400002066977, 9179768.9046],
            [584801.585599998594262, 9179788.6312],
            [584872.244099997798912, 9179805.09259999916],
            [584935.171799998846836, 9179818.250499999151],
            [584989.297699999879114, 9179846.901799999177],
            [585044.531100001418963, 9179877.762299999595],
            [585087.609700001776218, 9179899.799199998378754],
            [585132.866699998965487, 9179905.248400002717972],
            [585245.467899999232031, 9179924.953099999577],
            [585254.261999998590909, 9179905.0372],
            [585264.138499998953193, 9179872.957999998703599],
            [585265.222900002147071, 9179861.900299999863],
            [585266.299499999149702, 9179846.420199997723103],
            [585264.071199999772944, 9179834.262599999085],
            [585237.573399998946115, 9179827.675199998542666],
            [585196.736600002739578, 9179825.535099999979],
            [585168.0509, 9179830.0074],
            [585151.489299999317154, 9179825.613800002261996],
            [585129.375199998379685, 9179801.329399997368455],
            [585090.611099999747239, 9179721.794599998742342],
            [585072.851799999247305, 9179663.229399997740984],
            [585058.422600000165403, 9179615.714199997484684],
            [585056.159700000658631, 9179583.656099999323],
            [585058.334199998877011, 9179564.8574],
            [585068.249200002406724, 9179554.8899],
            [585084.793400002061389, 9179549.333199998363853],
            [585106.865099999122322, 9179549.294799998402596],
            [585142.19720000133384, 9179559.1837],
            [585164.276599999051541, 9179563.567599998787045],
            [585183.029900001478381, 9179559.1126],
            [585205.072699999203905, 9179542.490399997681379],
            [585224.898800001130439, 9179520.3442],
            [585239.206900001969188, 9179498.207499999553],
            [585251.328999999677762, 9179488.236099999398],
            [585274.496600000187755, 9179483.773399999365],
            [585313.121999999741092, 9179483.7061],
            [585339.600399999762885, 9179479.2376],
            [585366.063299999572337, 9179465.924399999902],
            [585373.767099999589846, 9179453.7495],
            [585370.415900000487454, 9179430.538],
            [585361.544800001545809, 9179406.230600001290441],
            [585341.630200001760386, 9179377.52],
            [585334.973999998532236, 9179357.6311],
            [585341.556899998686276, 9179335.507899999619],
            [585358.077799998922274, 9179316.6841],
            [585384.534800000372343, 9179300.054099997505546],
            [585418.722699998994358, 9179286.727399997413158],
            [585427.524300001328811, 9179271.233800001442432],
            [585427.491499999072403, 9179252.438899999484],
            [585413.112099999329075, 9179233.668999997898936],
            [585393.214900000602938, 9179214.9087],
            [585387.670000002253801, 9179199.440199999139],
            [585389.836600002250634, 9179176.2191],
            [585384.291699999477714, 9179160.750499999151],
            [585359.953199999872595, 9179126.519800001755357],
            [585340.042500000796281, 9179100.0204],
            [585336.699000000138767, 9179081.2313],
            [585344.387399998959154, 9179060.211700001731515],
            [585376.340899999835528, 9179031.4107],
            [585388.45519999822136, 9179017.016899999231],
            [585388.441599999205209, 9179009.277800001204014],
            [585375.167899997904897, 9178991.6116],
            [585359.681199999642558, 9178970.632399998605251],
            [585351.931099999230355, 9178956.273299997672439],
            [585349.689200000837445, 9178936.3767],
            [585361.758999998797663, 9178896.5545],
            [585374.969099999638274, 9178877.7364],
            [585385.995199999539182, 9178872.1892],
            [585403.669699998688884, 9178882.108700001612306],
            [585427.996500000357628, 9178909.7059],
            [585444.594499998958781, 9178935.105399997904897],
            [585456.739599999855272, 9178938.4009],
            [585472.187699998379685, 9178937.2683],
            [585485.409399998490699, 9178925.083799997344613],
            [585494.212799998698756, 9178910.6957],
            [585506.307599999593, 9178885.246099999174],
            [585513.976599999819882, 9178853.170600002631545],
            [585527.176899999263696, 9178828.824599999934],
            [585553.631699998979457, 9178811.088899997994304],
            [585585.608100002165884, 9178795.5547],
            [585605.460799998370931, 9178788.886499999091],
            [585612.068599998252466, 9178781.1358],
            [585624.144000000553206, 9178744.6302],
            [585640.608500000555068, 9178693.7443],
            [585658.205499999574386, 9178659.4403],
            [585676.939000001642853, 9178643.929199997335672],
            [585707.811800000490621, 9178628.3969],
            [585739.801599998492748, 9178620.6017],
            [585791.657599999569356, 9178613.877199999988],
            [585802.685499999439344, 9178609.435399999842],
            [585814.799499999149702, 9178595.0415],
            [585825.767300002160482, 9178556.326700001955032],
            [585833.439800001331605, 9178526.4623],
            [585836.70969999814406, 9178503.23919999972],
            [585852.126600001356564, 9178484.417099997401237],
            [585886.282699998584576, 9178453.400599999353],
            [585899.486600000411272, 9178431.265699997544289],
            [585914.895699999760836, 9178408.021199999377],
            [585939.1624, 9178401.345],
            [585957.89769999764394, 9178386.9394],
            [585979.916399999172427, 9178357.049799999222],
            [585997.546099999453872, 9178341.540499998256564],
            [586022.902700001839548, 9178327.123199999332],
            [586035.037999999010935, 9178324.890699999407],
            [586052.696900001610629, 9178325.965199997648597],
            [586067.031500000157394, 9178319.306399999186],
            [586078.032099998788908, 9178299.386399999261],
            [586076.89740000013262, 9178281.69899999909],
            [586076.877899998333305, 9178270.6431],
            [586133.132099998299964, 9178255.065699998289347],
            [586151.876999999862164, 9178246.187999997287989],
            [586163.992800001869909, 9178232.899500001221895],
            [586204.775699998135678, 9178205.187899997457862],
            [586241.134600000223145, 9178171.956000002101064],
            [586258.762299998546951, 9178155.341099997982383],
            [586275.299999998416752, 9178146.467100001871586],
            [586317.233199998736382, 9178145.287499999627],
            [586360.252400000230409, 9178134.1556],
            [586380.106699998956174, 9178128.592499999329],
            [586423.182499998249114, 9178149.5226],
            [586441.954799999832176, 9178156.122899997979403],
            [586484.995499998563901, 9178157.1523],
            [586497.13660000206437, 9178158.2364],
            [586520.330900000175461, 9178169.251299999654],
            [586530.26089999883, 9178168.1281],
            [586544.595399998594075, 9178161.4692],
            [586573.237000000546686, 9178132.6731],
            [586586.469900000374764, 9178127.121700001880527],
            [586635.030399997951463, 9178129.246799999848],
            [586655.997899998095818, 9178129.209599999711],
            [586675.844300000928342, 9178119.224099999294],
            [586693.469899998512119, 9178101.503299999982],
            [586709.984000000287779, 9178079.362199999392],
            [586726.517699998337775, 9178068.2769],
            [586760.710299998987466, 9178058.2659],
            [586792.697700001997873, 9178049.36439999938],
            [586814.743299998575822, 9178034.9525],
            [586942.64559999841731, 9177972.811899999157],
            [586999.998900000238791, 9177955.0204],
            [587068.377999998861924, 9177931.681099997833371],
            [587109.183799999416806, 9177917.2356],
            [587161.015399999101646, 9177897.242500001564622],
            [587194.080499998992309, 9177873.966099999845],
            [587224.916799998958595, 9177838.532099999487],
            [587257.918700000154786, 9177779.8767],
            [587298.655199999571778, 9177726.7355],
            [587363.709300000569783, 9177695.662499997764826],
            [587427.693399998708628, 9177683.386499997228384],
            [587704.698299999814481, 9177690.6289],
            [587713.532700002426282, 9177693.929899999872],
            [587725.655799998901784, 9177685.063299998641014],
            [587734.444500002544373, 9177662.935699997469783],
            [587757.605099998298101, 9177655.154899999499],
            [587770.841799997957423, 9177651.8143],
            [587781.835499999346212, 9177628.577099999413],
            [587793.958699999144301, 9177619.7105],
            [587811.5916, 9177606.411699999124],
            [587817.071599998394959, 9177585.3956],
            [587820.354399998439476, 9177569.911399999633],
            [587829.160900000482798, 9177557.733999997377396],
            [587842.391499999794178, 9177551.0766],
            [587861.139899998204783, 9177544.409299999475],
            [587869.966300001600757, 9177543.287799999118],
            [587889.822099999641068, 9177538.829699998721],
            [587951.636699997936375, 9177547.5632],
            [588040.944299999740906, 9177503.1784],
            [588072.901299999793991, 9177477.692099999636],
            [588091.589799998910166, 9177437.857000002637506],
            [588110.240300001925789, 9177377.015599997714162],
            [588116.749800000339746, 9177315.0906],
            [588108.937199999345466, 9177266.458500001579523],
            [588095.604900000384077, 9177216.730799999088],
            [588072.358699999866076, 9177176.9713],
            [588040.262299998197705, 9177125.066299997270107],
            [587997.130599999101833, 9177073.181199999526],
            [587969.47640000062529, 9177036.746400002390146],
            [587945.115000001038425, 9176990.355399999768],
            [587927.3707, 9176941.7412],
            [587918.450800000457093, 9176890.899900002405047],
            [587906.202399999718182, 9176830.11430000141263],
            [587899.461700000450946, 9176763.79079999961],
            [587889.434300000197254, 9176710.740299999714],
            [587872.789699998218566, 9176659.9129],
            [587840.677899997564964, 9176599.1631],
            [587791.999300000374205, 9176530.7039],
            [587734.458899998338893, 9176443.465500002726912],
            [587704.574399998411536, 9176393.767599998041987],
            [587674.667899998486973, 9176331.908099997788668],
            [587666.885700000450015, 9176299.859799999744],
            [587656.898299998254515, 9176268.921200001612306],
            [587633.648899999447167, 9176226.950399998575449],
            [587588.317300001857802, 9176178.38570000231266],
            [587523.072900000144728, 9176102.217],
            [587466.686599999782629, 9176042.6161],
            [587453.36699999764096, 9175999.521899998188019],
            [587434.587500000372529, 9175988.4996],
            [587411.374099999899045, 9175966.4294],
            [587393.654500001226552, 9175931.0822],
            [587383.699099997873418, 9175917.832899998873472],
            [587360.497699998319149, 9175902.396199999377],
            [587302.998299999861047, 9175837.2693],
            [587274.241799998795614, 9175800.836199998855591],
            [587228.924799999105744, 9175760.0104],
            [587181.398899998515844, 9175718.082900002598763],
            [587127.257899999152869, 9175679.48399999924],
            [587086.366999998805113, 9175645.2838],
            [587047.6615, 9175598.918],
            [587016.674499999965, 9175549.221699997782707],
            [586986.785299998009577, 9175496.2067],
            [586956.854600000893697, 9175419.974199999124],
            [586949.058999999193475, 9175380.186799999326],
            [586937.91350000014063, 9175318.2935],
            [586927.7965, 9175214.385800002142787],
            [586925.476999998209067, 9175151.3712],
            [586930.763500002096407, 9175022.007399998605251],
            [586949.151399997877888, 9174814.123099997639656],
            [586949.166016998817213, 9174813.958304066210985]
          ]
        ]
      }
    }
  ]
}
